{
  "version": "1.0.0-*",
  "buildOptions": {
    "debugType": "portable"
  },
  "dependencies": {
    "AspNet.Security.Oauth.Validation": "1.0.0-alpha2-final",
    "OpenIddict": "1.0.0-beta1-*",
    "Microsoft.AspNetCore.Mvc": "1.0.0"
  },
  "frameworks": {
    "netstandard1.6": {
      "dependencies": {
        "NETStandard.Library": "1.6.0"
      }
    }
  }
}
